{
    "name": "Short Physical Performance Battery",
    "title": "Short Physical Performance Battery",
    "description": "",
    "questions": [
      {
        "title": "Le he dicho una fruta, ¿cuál era? (Si 0, repetirla)",
        "description": "",
        "answers": [
          {
            "title": "0",
            "value": 0
          },
          {
            "title": "1",
            "value": 1
          }
        ]
      },
      {
        "title": "Le he dicho una herramienta, ¿cuál era? (Si 0, repetirla)",
        "description": "",
        "answers": [
          {
            "title": "0",
            "value": 0
          },
          {
            "title": "1",
            "value": 1
          }
        ]
      },
      {
        "title": "Le he dicho un animal, ¿cuál? (Si 0, repetirla)",
        "description": "",
        "answers": [
          {
            "title": "0",
            "value": 0
          },
          {
            "title": "1",
            "value": 1
          }
        ]
      },
      {
        "title": " Le he dicho un instrumento musical, ¿cuál? (Si 0, repetirla)",
        "description": "",
        "answers": [
          {
            "title": "0",
            "value": 0
          },
          {
            "title": "1",
            "value": 1
          }
        ]
      },
      {
        "title": "Le he dicho un color, ¿cual? (Si 0, repetirla)",
        "description": "",
        "answers": [
          {
            "title": "0",
            "value": 0
          },
          {
            "title": "1",
            "value": 1
          }
        ]
      },
      {
        "title": "¿Tiene usted miedo de que algo malo le vaya a pasar?",
        "description": "",
        "answers": [
          {
            "title": "SI",
            "value": 1
          },
          {
            "title": "NO",
            "value": 0
          }
        ]
      },
      {
        "title": " ¿Se siente feliz la mayor parte del tiempo?",
        "description": "",
        "answers": [
          {
            "title": "SI",
            "value": 0
          },
          {
            "title": "NO",
            "value": 1
          }
        ]
      },
      {
        "title": "¿Se siente usted a menudo indefenso(a)?",
        "description": "",
        "answers": [
          {
            "title": "SI",
            "value": 1
          },
          {
            "title": "NO",
            "value": 0
          }
        ]
      },
      {
        "title": "¿Prefiere usted quedarse en la casa, en vez de salir y hacer cosas nuevas?",
        "description": "",
        "answers": [
          {
            "title": "SI",
            "value": 1
          },
          {
            "title": "NO",
            "value": 0
          }
        ]
      },
      {
        "title": "¿Con respecto a su memoria: ¿Siente usted que tiene más problemas que la mayoría de la gente?",
        "description": "",
        "answers": [
          {
            "title": "SI",
            "value": 1
          },
          {
            "title": "NO",
            "value": 0
          }
        ]
      },
      {
        "title": "¿Piensa usted que es maravilloso estar vivo(a) en este momento?",
        "description": "",
        "answers": [
          {
            "title": "SI",
            "value": 0
          },
          {
            "title": "NO",
            "value": 1
          }
        ]
      },
      {
        "title": "¿De la forma de cómo se siente usted en este momento, ¿Se siente usted inútil?",
        "description": "",
        "answers": [
          {
            "title": "SI",
            "value": 1
          },
          {
            "title": "NO",
            "value": 0
          }
        ]
      },
      {
        "title": "¿Se siente usted con mucha energía?",
        "description": "",
        "answers": [
          {
            "title": "SI",
            "value": 0
          },
          {
            "title": "NO",
            "value": 1
          }
        ]
      },
      {
        "title": " ¿Siente usted que su situación es irremediable?",
        "description": "",
        "answers": [
          {
            "title": "SI",
            "value": 1
          },
          {
            "title": "NO",
            "value": 0
          }
        ]
      },
      {
        "title": "¿Piensa usted que la mayoría de las personas están en mejores condiciones que usted?",
        "description": "",
        "answers": [
          {
            "title": "SI",
            "value": 1
          },
          {
            "title": "NO",
            "value": 0
          }
        ]
      }
    ]
  }